ngspice-nghdl/src/xspice/icm/ghdl/pwmincrement/DUTghdl/pwmincrement_tb.vcd
$date
  Sun Aug 29 12:00:26 2021
$end
$version
  GHDL v0
$end
$timescale
  1 fs
$end
$scope module standard $end
$upscope $end
$scope module std_logic_1164 $end
$upscope $end
$scope module numeric_std $end
$upscope $end
$scope module utility_package $end
$upscope $end
$scope module vhpi_foreign $end
$upscope $end
$scope module sock_pkg $end
$upscope $end
$scope module pwmincrement_tb $end
$var reg 1 ! clk_s $end
$var reg 1 " c $end
$var reg 1 # d $end
$var reg 1 $ q $end
$scope module u1 $end
$var reg 1 % c $end
$var reg 1 & d $end
$var reg 1 ' q $end
$var integer 32 ( count $end
$var integer 32 ) alpha $end
$var integer 32 * beta $end
$var integer 32 + tmp $end
$upscope $end
$upscope $end
$enddefinitions $end
#0
0!
U"
U#
U$
U%
U&
U'
b0 (
b0 )
b0 *
b0 +
#5000000000
1!
#10000000000
0!
0"
0#
0%
0&
#11000000000
#15000000000
1!
#20000000000
0!
#21000000000
#25000000000
1!
#30000000000
0!
1#
1&
#31000000000
#35000000000
1!
#40000000000
0!
1"
0$
1%
0'
b1 (
b1 )
#41000000000
#45000000000
1!
#50000000000
0!
#51000000000
#55000000000
1!
#60000000000
0!
0"
0%
#61000000000
#65000000000
1!
#70000000000
0!
1"
1%
b10 )
#71000000000
#75000000000
1!
#80000000000
0!
0"
0%
#81000000000
#85000000000
1!
#90000000000
0!
1"
1%
b11 )
#91000000000
#95000000000
1!
#100000000000
0!
#101000000000
#105000000000
1!
#110000000000
0!
0"
0%
#111000000000
#115000000000
1!
#120000000000
0!
1"
1%
b100 )
#121000000000
#125000000000
1!
#130000000000
0!
#131000000000
#135000000000
1!
#140000000000
0!
0"
0%
#141000000000
#145000000000
1!
#150000000000
0!
1"
1%
b101 )
#151000000000
#155000000000
1!
#160000000000
0!
#161000000000
#165000000000
1!
#170000000000
0!
0"
0%
#171000000000
#175000000000
1!
#180000000000
0!
1"
1%
b110 )
#181000000000
#185000000000
1!
#190000000000
0!
#191000000000
#195000000000
1!
#200000000000
0!
0"
0%
#201000000000
#205000000000
1!
#210000000000
0!
1"
1%
b111 )
#211000000000
#215000000000
1!
#220000000000
0!
#221000000000
#225000000000
1!
#230000000000
0!
0"
0%
#231000000000
#235000000000
1!
#240000000000
0!
1"
1%
b1000 )
#241000000000
#245000000000
1!
#250000000000
0!
#251000000000
#255000000000
1!
#260000000000
0!
0"
0%
#261000000000
#265000000000
1!
#270000000000
0!
1"
1%
b0 (
b0 )
b1 +
#271000000000
#275000000000
1!
#280000000000
0!
0"
0%
#281000000000
#285000000000
1!
#290000000000
0!
1"
1$
1%
1'
b1 (
b1 )
#291000000000
#295000000000
1!
#300000000000
0!
0"
0%
#301000000000
#305000000000
1!
#310000000000
0!
0#
0&
#311000000000
#315000000000
1!
#320000000000
0!
1"
0$
1%
0'
b10 )
b1 *
b0 +
#321000000000
#325000000000
1!
#330000000000
0!
#331000000000
#335000000000
1!
#340000000000
0!
1#
1&
#341000000000
#345000000000
1!
#350000000000
0!
0"
0%
#351000000000
#355000000000
1!
#360000000000
0!
1"
1%
b11 )
#361000000000
#365000000000
1!
#370000000000
0!
0"
0%
#371000000000
#375000000000
1!
#380000000000
0!
1"
1%
b100 )
#381000000000
#385000000000
1!
#390000000000
0!
0"
0%
#391000000000
#395000000000
1!
#400000000000
0!
1"
1%
b101 )
#401000000000
#405000000000
1!
#410000000000
0!
0"
0%
#411000000000
#415000000000
1!
#420000000000
0!
1"
1%
b110 )
#421000000000
#425000000000
1!
#430000000000
0!
#431000000000
#435000000000
1!
#440000000000
0!
0"
0%
#441000000000
#445000000000
1!
#450000000000
0!
1"
1%
b111 )
#451000000000
#455000000000
1!
#460000000000
0!
0"
0%
#461000000000
#465000000000
1!
#470000000000
0!
1"
1%
b1000 )
#471000000000
#475000000000
1!
#480000000000
0!
#481000000000
#485000000000
1!
#490000000000
0!
0"
0%
#491000000000
#495000000000
1!
#500000000000
0!
1"
1%
b0 (
b0 )
b0 *
b10 +
#501000000000
#505000000000
1!
#510000000000
0!
#511000000000
#515000000000
1!
#520000000000
0!
0"
0%
#521000000000
#525000000000
1!
#530000000000
0!
1"
1$
1%
1'
b1 (
b1 )
#531000000000
#535000000000
1!
#540000000000
0!
#541000000000
#545000000000
1!
#550000000000
0!
0"
0%
#551000000000
#555000000000
1!
#560000000000
0!
0#
0&
#561000000000
#565000000000
1!
#570000000000
0!
1"
1%
b10 )
b1 *
#571000000000
#575000000000
1!
#580000000000
0!
0"
0%
#581000000000
#585000000000
1!
#590000000000
0!
1"
0$
1%
0'
b11 )
b10 *
b0 +
#591000000000
#595000000000
1!
#600000000000
0!
#601000000000
#605000000000
1!
#610000000000
0!
1#
1&
#611000000000
#615000000000
1!
#620000000000
0!
0"
0%
#621000000000
#625000000000
1!
#630000000000
0!
1"
1%
b100 )
#631000000000
#635000000000
1!
#640000000000
0!
#641000000000
#645000000000
1!
#650000000000
0!
0"
0%
#651000000000
#655000000000
1!
#660000000000
0!
1"
1%
b101 )
#661000000000
#665000000000
1!
#670000000000
0!
#671000000000
#675000000000
1!
#680000000000
0!
0"
0%
#681000000000
#685000000000
1!
#690000000000
0!
1"
1%
b110 )
#691000000000
#695000000000
1!
#700000000000
0!
#701000000000
#705000000000
1!
#710000000000
0!
0"
0%
#711000000000
#715000000000
1!
#720000000000
0!
1"
1%
b111 )
#721000000000
#725000000000
1!
#730000000000
0!
#731000000000
#735000000000
1!
#740000000000
0!
0"
0%
#741000000000
#745000000000
1!
#750000000000
0!
1"
1%
b1000 )
#751000000000
#755000000000
1!
#760000000000
0!
#761000000000
#765000000000
1!
#770000000000
0!
0"
0%
#771000000000
#775000000000
1!
#780000000000
0!
1"
1%
b0 (
b0 )
b0 *
b11 +
#781000000000
#785000000000
1!
#790000000000
0!
#791000000000
#795000000000
1!
#800000000000
0!
0"
0%
#801000000000
#805000000000
1!
#810000000000
0!
1"
1$
1%
1'
b1 (
b1 )
#811000000000
#815000000000
1!
#820000000000
0!
#821000000000
#825000000000
1!
#830000000000
0!
0"
0%
#831000000000
#835000000000
1!
#840000000000
0!
#841000000000
#845000000000
1!
#850000000000
0!
0#
0&
#851000000000
#855000000000
1!
#860000000000
0!
1"
1%
b10 )
b1 *
#861000000000
#865000000000
1!
#870000000000
0!
#871000000000
#875000000000
1!
#880000000000
0!
0"
0%
#881000000000
#885000000000
1!
#890000000000
0!
1"
1%
b11 )
b10 *
#891000000000
#895000000000
1!
#900000000000
0!
#901000000000
#905000000000
1!
#910000000000
0!
0"
0%
#911000000000
#915000000000
1!
#920000000000
0!
1"
0$
1%
0'
b100 )
b11 *
b0 +
#921000000000
#925000000000
1!
#930000000000
0!
#931000000000
#935000000000
1!
#940000000000
0!
1#
1&
#941000000000
#945000000000
1!
#950000000000
0!
0"
0%
#951000000000
#955000000000
1!
#960000000000
0!
1"
1%
b101 )
#961000000000
#965000000000
1!
#970000000000
0!
#971000000000
#975000000000
1!
#980000000000
0!
0"
0%
#981000000000
#985000000000
1!
#990000000000
0!
1"
1%
b110 )
#991000000000
#995000000000
1!
#1000000000000
0!
0"
0%
#1001000000000
#1005000000000
1!
#1010000000000
0!
1"
1%
b111 )
#1011000000000
#1015000000000
1!
#1020000000000
0!
#1021000000000
#1025000000000
1!
#1030000000000
0!
0"
0%
#1031000000000
#1035000000000
1!
#1040000000000
0!
1"
1%
b1000 )
#1041000000000
#1045000000000
1!
#1050000000000
0!
#1051000000000
#1055000000000
1!
#1060000000000
0!
0"
0%
#1061000000000
#1065000000000
1!
#1070000000000
0!
1"
1%
b0 (
b0 )
b0 *
b100 +
#1071000000000
#1075000000000
1!
#1080000000000
0!
#1081000000000
#1085000000000
1!
#1090000000000
0!
0"
0%
#1091000000000
#1095000000000
1!
#1100000000000
0!
1"
1$
1%
1'
b1 (
b1 )
#1101000000000
#1105000000000
1!
#1110000000000
0!
#1111000000000
#1115000000000
1!
#1120000000000
0!
0"
0%
#1121000000000
#1125000000000
1!
#1130000000000
0!
0#
0&
#1131000000000
#1135000000000
1!
#1140000000000
0!
1"
1%
b10 )
b1 *
#1141000000000
#1145000000000
1!
#1150000000000
0!
#1151000000000
#1155000000000
1!
#1160000000000
0!
0"
0%
#1161000000000
#1165000000000
1!
#1170000000000
0!
1"
1%
b11 )
b10 *
#1171000000000
#1175000000000
1!
#1180000000000
0!
#1181000000000
#1185000000000
1!
#1190000000000
0!
0"
0%
#1191000000000
#1195000000000
1!
#1200000000000
0!
1"
1%
b100 )
b11 *
#1201000000000
#1205000000000
1!
#1210000000000
0!
#1211000000000
#1215000000000
1!
#1220000000000
0!
0"
0%
#1221000000000
#1225000000000
1!
#1230000000000
0!
1"
0$
1%
0'
b101 )
b100 *
b0 +
#1231000000000
#1235000000000
1!
#1240000000000
0!
#1241000000000
#1245000000000
1!
#1250000000000
0!
0"
1#
0%
1&
#1251000000000
#1255000000000
1!
#1260000000000
0!
#1261000000000
#1265000000000
1!
#1270000000000
0!
1"
1%
b110 )
#1271000000000
#1275000000000
1!
#1280000000000
0!
#1281000000000
#1285000000000
1!
#1290000000000
0!
0"
0%
#1291000000000
#1295000000000
1!
#1300000000000
0!
1"
1%
b111 )
#1301000000000
#1305000000000
1!
#1310000000000
0!
#1311000000000
#1315000000000
1!
#1320000000000
0!
0"
0%
#1321000000000
#1325000000000
1!
#1330000000000
0!
1"
1%
b1000 )
#1331000000000
#1335000000000
1!
#1340000000000
0!
#1341000000000
#1345000000000
1!
#1350000000000
0!
0"
0%
#1351000000000
#1355000000000
1!
#1360000000000
0!
1"
1%
b0 (
b0 )
b0 *
b101 +
#1361000000000
#1365000000000
1!
#1370000000000
0!
#1371000000000
#1375000000000
1!
#1380000000000
0!
0"
0%
#1381000000000
#1385000000000
1!
#1390000000000
0!
1"
1$
1%
1'
b1 (
b1 )
#1391000000000
#1395000000000
1!
#1400000000000
0!
#1401000000000
#1405000000000
1!
#1410000000000
0!
0"
0%
#1411000000000
#1415000000000
1!
#1420000000000
0!
0#
0&
#1421000000000
#1425000000000
1!
#1430000000000
0!
1"
1%
b10 )
b1 *
#1431000000000
#1435000000000
1!
#1440000000000
0!
#1441000000000
#1445000000000
1!
#1450000000000
0!
0"
0%
#1451000000000
#1455000000000
1!
#1460000000000
0!
1"
1%
b11 )
b10 *
#1461000000000
#1465000000000
1!
#1470000000000
0!
#1471000000000
#1475000000000
1!
#1480000000000
0!
0"
0%
#1481000000000
#1485000000000
1!
#1490000000000
0!
1"
1%
b100 )
b11 *
#1491000000000
#1495000000000
1!
#1500000000000
0!
#1501000000000
#1505000000000
1!
#1510000000000
0!
0"
0%
#1511000000000
#1515000000000
1!
#1520000000000
0!
1"
1%
b101 )
b100 *
#1521000000000
#1525000000000
1!
#1530000000000
0!
#1531000000000
#1535000000000
1!
#1540000000000
0!
0"
0%
#1541000000000
#1545000000000
1!
#1550000000000
0!
1"
0$
1%
0'
b110 )
b101 *
b0 +
#1551000000000
#1555000000000
1!
#1560000000000
0!
#1561000000000
#1565000000000
1!
#1570000000000
0!
0"
0%
#1571000000000
#1575000000000
1!
#1580000000000
0!
1#
1&
#1581000000000
#1585000000000
1!
#1590000000000
0!
#1591000000000
#1595000000000
1!
#1600000000000
0!
1"
1%
b111 )
#1601000000000
#1605000000000
1!
#1610000000000
0!
#1611000000000
#1615000000000
1!
#1620000000000
0!
0"
0%
#1621000000000
#1625000000000
1!
#1630000000000
0!
1"
1%
b1000 )
#1631000000000
#1635000000000
1!
#1640000000000
0!
#1641000000000
#1645000000000
1!
#1650000000000
0!
0"
0%
#1651000000000
#1655000000000
1!
#1660000000000
0!
1"
1%
b0 (
b0 )
b0 *
b110 +
#1661000000000
#1665000000000
1!
#1670000000000
0!
#1671000000000
#1675000000000
1!
#1680000000000
0!
0"
0%
#1681000000000
#1685000000000
1!
#1690000000000
0!
1"
1$
1%
1'
b1 (
b1 )
#1691000000000
#1695000000000
1!
#1700000000000
0!
#1701000000000
#1705000000000
1!
#1710000000000
0!
0"
0%
#1711000000000
#1715000000000
1!
#1720000000000
0!
0#
0&
#1721000000000
#1725000000000
1!
#1730000000000
0!
1"
1%
b10 )
b1 *
#1731000000000
#1735000000000
1!
#1740000000000
0!
#1741000000000
#1745000000000
1!
#1750000000000
0!
0"
0%
#1751000000000
#1755000000000
1!
#1760000000000
0!
1"
1%
b11 )
b10 *
#1761000000000
#1765000000000
1!
#1770000000000
0!
#1771000000000
#1775000000000
1!
#1780000000000
0!
0"
0%
#1781000000000
#1785000000000
1!
#1790000000000
0!
1"
1%
b100 )
b11 *
#1791000000000
#1795000000000
1!
#1800000000000
0!
#1801000000000
#1805000000000
1!
#1810000000000
0!
0"
0%
#1811000000000
#1815000000000
1!
#1820000000000
0!
1"
1%
b101 )
b100 *
#1821000000000
#1825000000000
1!
#1830000000000
0!
#1831000000000
#1835000000000
1!
#1840000000000
0!
0"
0%
#1841000000000
#1845000000000
1!
#1850000000000
0!
1"
1%
b110 )
b101 *
#1851000000000
#1855000000000
1!
#1860000000000
0!
#1861000000000
#1865000000000
1!
#1870000000000
0!
0"
0%
#1871000000000
#1875000000000
1!
#1880000000000
0!
1"
0$
1%
0'
b111 )
b110 *
b0 +
#1881000000000
#1885000000000
1!
#1890000000000
0!
#1891000000000
#1895000000000
1!
#1900000000000
0!
0"
0%
#1901000000000
#1905000000000
1!
#1910000000000
0!
1#
1&
#1911000000000
#1915000000000
1!
#1920000000000
0!
1"
1%
b1000 )
#1921000000000
#1925000000000
1!
#1930000000000
0!
#1931000000000
#1935000000000
1!
#1940000000000
0!
0"
0%
#1941000000000
#1945000000000
1!
#1950000000000
0!
1"
1%
b0 (
b0 )
b0 *
b111 +
#1951000000000
#1955000000000
1!
#1960000000000
0!
#1961000000000
#1965000000000
1!
#1970000000000
0!
0"
0%
#1971000000000
#1975000000000
1!
#1980000000000
0!
1"
1$
1%
1'
b1 (
b1 )
#1981000000000
#1985000000000
1!
#1990000000000
0!
#1991000000000
#1995000000000
1!
#2000000000000
0!
0"
0%
#2001000000000
#2005000000000
1!
#2010000000000
0!
#2011000000000
#2015000000000
1!
#2020000000000
0!
0#
0&
#2021000000000
#2025000000000
1!
#2030000000000
0!
1"
1%
b10 )
b1 *
#2031000000000
#2035000000000
1!
#2040000000000
0!
#2041000000000
#2045000000000
1!
#2050000000000
0!
0"
0%
#2051000000000
#2055000000000
1!
#2060000000000
0!
1"
1%
b11 )
b10 *
#2061000000000
#2065000000000
1!
#2070000000000
0!
#2071000000000
#2075000000000
1!
#2080000000000
0!
0"
0%
#2081000000000
#2085000000000
1!
#2090000000000
0!
1"
1%
b100 )
b11 *
#2091000000000
#2095000000000
1!
#2100000000000
0!
#2101000000000
#2105000000000
1!
#2110000000000
0!
0"
0%
#2111000000000
#2115000000000
1!
#2120000000000
0!
1"
1%
b101 )
b100 *
#2121000000000
#2125000000000
1!
#2130000000000
0!
#2131000000000
#2135000000000
1!
#2140000000000
0!
0"
0%
#2141000000000
#2145000000000
1!
#2150000000000
0!
1"
1%
b110 )
b101 *
#2151000000000
#2155000000000
1!
#2160000000000
0!
#2161000000000
#2165000000000
1!
#2170000000000
0!
0"
0%
#2171000000000
#2175000000000
1!
#2180000000000
0!
1"
1%
b111 )
b110 *
#2181000000000
#2185000000000
1!
#2190000000000
0!
#2191000000000
#2195000000000
1!
#2200000000000
0!
0"
0%
#2201000000000
#2205000000000
1!
#2210000000000
0!
1"
0$
1%
0'
b1000 )
b111 *
b0 +
#2211000000000
#2215000000000
1!
#2220000000000
0!
#2221000000000
#2225000000000
1!
#2230000000000
0!
0"
0%
#2231000000000
#2235000000000
1!
#2240000000000
0!
1#
1&
#2241000000000
#2245000000000
1!
#2250000000000
0!
1"
1%
b0 (
b0 )
b0 *
b1000 +
#2251000000000
#2255000000000
1!
#2260000000000
0!
#2261000000000
#2265000000000
1!
#2270000000000
0!
0"
0%
#2271000000000
#2275000000000
1!
#2280000000000
0!
1"
1$
1%
1'
b1 (
b1 )
#2281000000000
#2285000000000
1!
#2290000000000
0!
#2291000000000
#2295000000000
1!
#2300000000000
0!
0"
0%
#2301000000000
#2305000000000
1!
#2310000000000
0!
0#
0&
#2311000000000
#2315000000000
1!
#2320000000000
0!
1"
1%
b10 )
b1 *
#2321000000000
#2325000000000
1!
#2330000000000
0!
#2331000000000
#2335000000000
1!
#2340000000000
0!
0"
0%
#2341000000000
#2345000000000
1!
#2350000000000
0!
1"
1%
b11 )
b10 *
#2351000000000
#2355000000000
1!
#2360000000000
0!
#2361000000000
#2365000000000
1!
#2370000000000
0!
0"
0%
#2371000000000
#2375000000000
1!
#2380000000000
0!
1"
1%
b100 )
b11 *
#2381000000000
#2385000000000
1!
#2390000000000
0!
#2391000000000
#2395000000000
1!
#2400000000000
0!
0"
0%
#2401000000000
#2405000000000
1!
#2410000000000
0!
1"
1%
b101 )
b100 *
#2411000000000
#2415000000000
1!
#2420000000000
0!
#2421000000000
#2425000000000
1!
#2430000000000
0!
0"
0%
#2431000000000
#2435000000000
1!
#2440000000000
0!
1"
1%
b110 )
b101 *
#2441000000000
#2445000000000
1!
#2450000000000
0!
#2451000000000
#2455000000000
1!
#2460000000000
0!
0"
0%
#2461000000000
#2465000000000
1!
#2470000000000
0!
1"
1%
b111 )
b110 *
#2471000000000
#2475000000000
1!
#2480000000000
0!
#2481000000000
#2485000000000
1!
#2490000000000
0!
0"
0%
#2491000000000
#2495000000000
1!
#2500000000000
0!
1"
1%
b1000 )
b111 *
#2501000000000
#2505000000000
1!
#2510000000000
0!
#2511000000000
#2515000000000
1!
#2520000000000
0!
0"
0%
#2521000000000
#2525000000000
1!
#2530000000000
0!
1"
0$
1%
0'
b0 (
b0 )
b0 *
b0 +
#2531000000000
#2535000000000
1!
#2540000000000
0!
#2541000000000
#2545000000000
1!
#2550000000000
0!
0"
0%
#2551000000000
#2555000000000
1!
#2560000000000
0!
1#
1&
#2561000000000
#2565000000000
1!
#2570000000000
0!
1"
1%
0'
b1 (
b1 )
#2571000000000
#2575000000000
1!
#2580000000000
0!
#2581000000000
#2585000000000
1!
#2590000000000
0!
0"
0%
#2591000000000
#2595000000000
1!
#2600000000000
0!
1"
1%
b10 )
#2601000000000
#2605000000000
1!
#2610000000000
0!
#2611000000000
#2615000000000
1!
#2620000000000
0!
0"
0%
#2621000000000
#2625000000000
1!
#2630000000000
0!
1"
1%
b11 )
#2631000000000
#2635000000000
1!
#2640000000000
0!
#2641000000000
#2645000000000
1!
#2650000000000
0!
0"
0%
#2651000000000
#2655000000000
1!
#2660000000000
0!
1"
1%
b100 )
#2661000000000
#2665000000000
1!
#2670000000000
0!
#2671000000000
#2675000000000
1!
#2680000000000
0!
0"
0%
#2681000000000
#2685000000000
1!
#2690000000000
0!
1"
1%
b101 )
#2691000000000
#2695000000000
1!
#2700000000000
0!
#2701000000000
#2705000000000
1!
#2710000000000
0!
0"
0%
#2711000000000
#2715000000000
1!
#2720000000000
0!
1"
1%
b110 )
#2721000000000
#2725000000000
1!
#2730000000000
0!
#2731000000000
#2735000000000
1!
#2740000000000
0!
0"
0%
#2741000000000
#2745000000000
1!
#2750000000000
0!
1"
1%
b111 )
#2751000000000
#2755000000000
1!
#2760000000000
0!
#2761000000000
#2765000000000
1!
#2770000000000
0!
0"
0%
#2771000000000
#2775000000000
1!
#2780000000000
0!
1"
1%
b1000 )
#2781000000000
#2785000000000
1!
#2790000000000
0!
#2791000000000
#2795000000000
1!
#2800000000000
0!
0"
0%
#2801000000000
#2805000000000
1!
#2810000000000
0!
1"
1%
b0 (
b0 )
b1 +
#2811000000000
#2815000000000
1!
#2820000000000
0!
#2821000000000
#2825000000000
1!
#2830000000000
0!
0"
0%
#2831000000000
#2835000000000
1!
#2840000000000
0!
1"
1$
1%
1'
b1 (
b1 )
#2841000000000
#2845000000000
1!
#2850000000000
0!
#2851000000000
#2855000000000
1!
#2860000000000
0!
0"
0%
#2861000000000
#2865000000000
1!
#2870000000000
0!
#2871000000000
#2875000000000
1!
#2880000000000
0!
0#
0&
#2881000000000
#2885000000000
1!
#2890000000000
0!
1"
0$
1%
0'
b10 )
b1 *
b0 +
#2891000000000
#2895000000000
1!
#2900000000000
0!
1#
1&
#2901000000000
#2905000000000
1!
#2910000000000
0!
0"
0%
#2911000000000
#2915000000000
1!
#2920000000000
0!
1"
1%
b11 )
#2921000000000
#2925000000000
1!
#2930000000000
0!
#2931000000000
#2935000000000
1!
#2940000000000
0!
0"
0%
#2941000000000
#2945000000000
1!
#2950000000000
0!
1"
1%
b100 )
#2951000000000
#2955000000000
1!
#2960000000000
0!
#2961000000000
#2965000000000
1!
#2970000000000
0!
0"
0%
#2971000000000
#2975000000000
1!
#2980000000000
0!
1"
1%
b101 )
#2981000000000
#2985000000000
1!
#2990000000000
0!
#2991000000000
#2995000000000
1!
#3000000000000
0!
0"
0%
#3001000000000
#3005000000000
1!
#3010000000000
0!
1"
1%
b110 )
#3011000000000
#3015000000000
1!
#3020000000000
0!
#3021000000000
#3025000000000
1!
#3030000000000
0!
0"
0%
#3031000000000
#3035000000000
1!
#3040000000000
0!
1"
1%
b111 )
#3041000000000
#3045000000000
1!
#3050000000000
0!
#3051000000000
#3055000000000
1!
#3060000000000
0!
0"
0%
#3061000000000
#3065000000000
1!
#3070000000000
0!
1"
1%
b1000 )
#3071000000000
#3075000000000
1!
#3080000000000
0!
#3081000000000
#3085000000000
1!
#3090000000000
0!
0"
0%
#3091000000000
#3095000000000
1!
#3100000000000
0!
1"
1%
b0 (
b0 )
b0 *
b10 +
#3101000000000
#3105000000000
1!
#3110000000000
0!
#3111000000000
#3115000000000
1!
#3120000000000
0!
0"
0%
#3121000000000
#3125000000000
1!
#3130000000000
0!
1"
1$
1%
1'
b1 (
b1 )
#3131000000000
#3135000000000
1!
#3140000000000
0!
#3141000000000
#3145000000000
1!
#3150000000000
0!
0"
0%
#3151000000000
#3155000000000
1!
#3160000000000
0!
0#
0&
#3161000000000
#3165000000000
1!
#3170000000000
0!
1"
1%
b10 )
b1 *
#3171000000000
#3175000000000
1!
#3180000000000
0!
#3181000000000
#3185000000000
1!
#3190000000000
0!
0"
0%
#3191000000000
#3195000000000
1!
#3200000000000
0!
1"
0$
1%
0'
b11 )
b10 *
b0 +
#3201000000000
#3205000000000
1!
#3210000000000
0!
#3211000000000
#3215000000000
1!
#3220000000000
0!
1#
1&
#3221000000000
#3225000000000
1!
#3230000000000
0!
0"
0%
#3231000000000
#3235000000000
1!
#3240000000000
0!
1"
1%
b100 )
#3241000000000
#3245000000000
1!
#3250000000000
0!
#3251000000000
#3255000000000
1!
#3260000000000
0!
0"
0%
#3261000000000
#3265000000000
1!
#3270000000000
0!
1"
1%
b101 )
#3271000000000
#3275000000000
1!
#3280000000000
0!
#3281000000000
#3285000000000
1!
#3290000000000
0!
0"
0%
#3291000000000
#3295000000000
1!
#3300000000000
0!
1"
1%
b110 )
#3301000000000
#3305000000000
1!
#3310000000000
0!
#3311000000000
#3315000000000
1!
#3320000000000
0!
0"
0%
#3321000000000
#3325000000000
1!
#3330000000000
0!
1"
1%
b111 )
#3331000000000
#3335000000000
1!
#3340000000000
0!
#3341000000000
#3345000000000
1!
#3350000000000
0!
0"
0%
#3351000000000
#3355000000000
1!
#3360000000000
0!
1"
1%
b1000 )
#3361000000000
#3365000000000
1!
#3370000000000
0!
#3371000000000
#3375000000000
1!
#3380000000000
0!
0"
0%
#3381000000000
#3385000000000
1!
#3390000000000
0!
1"
1%
b0 (
b0 )
b0 *
b11 +
#3391000000000
#3395000000000
1!
#3400000000000
0!
#3401000000000
#3405000000000
1!
#3410000000000
0!
0"
0%
#3411000000000
#3415000000000
1!
#3420000000000
0!
1"
1$
1%
1'
b1 (
b1 )
#3421000000000
#3425000000000
1!
#3430000000000
0!
#3431000000000
#3435000000000
1!
#3440000000000
0!
0"
0%
#3441000000000
#3445000000000
1!
#3450000000000
0!
#3451000000000
#3455000000000
1!
#3460000000000
0!
0#
0&
#3461000000000
#3465000000000
1!
#3470000000000
0!
1"
1%
b10 )
b1 *
#3471000000000
#3475000000000
1!
#3480000000000
0!
#3481000000000
#3485000000000
1!
#3490000000000
0!
0"
0%
#3491000000000
#3495000000000
1!
#3500000000000
0!
1"
1%
b11 )
b10 *
#3501000000000
#3505000000000
1!
#3510000000000
0!
#3511000000000
#3515000000000
1!
#3520000000000
0!
0"
0%
#3521000000000
#3525000000000
1!
#3530000000000
0!
1"
0$
1%
0'
b100 )
b11 *
b0 +
#3531000000000
#3535000000000
1!
#3540000000000
0!
#3541000000000
#3545000000000
1!
#3550000000000
0!
1#
1&
#3551000000000
#3555000000000
1!
#3560000000000
0!
0"
0%
#3561000000000
#3565000000000
1!
#3570000000000
0!
1"
1%
b101 )
#3571000000000
#3575000000000
1!
#3580000000000
0!
#3581000000000
#3585000000000
1!
#3590000000000
0!
0"
0%
#3591000000000
#3595000000000
1!
#3600000000000
0!
1"
1%
b110 )
#3601000000000
#3605000000000
1!
#3610000000000
0!
#3611000000000
#3615000000000
1!
#3620000000000
0!
0"
0%
#3621000000000
#3625000000000
1!
#3630000000000
0!
1"
1%
b111 )
#3631000000000
#3635000000000
1!
#3640000000000
0!
#3641000000000
#3645000000000
1!
#3650000000000
0!
0"
0%
#3651000000000
#3655000000000
1!
#3660000000000
0!
1"
1%
b1000 )
#3661000000000
#3665000000000
1!
#3670000000000
0!
#3671000000000
#3675000000000
1!
#3680000000000
0!
0"
0%
#3681000000000
#3685000000000
1!
#3690000000000
0!
1"
1%
b0 (
b0 )
b0 *
b100 +
#3691000000000
#3695000000000
1!
#3700000000000
0!
#3701000000000
#3705000000000
1!
#3710000000000
0!
0"
0%
#3711000000000
#3715000000000
1!
#3720000000000
0!
1"
1$
1%
1'
b1 (
b1 )
#3721000000000
#3725000000000
1!
#3730000000000
0!
#3731000000000
#3735000000000
1!
#3740000000000
0!
0"
0%
#3741000000000
#3745000000000
1!
#3750000000000
0!
0#
0&
#3751000000000
#3755000000000
1!
#3760000000000
0!
1"
1%
b10 )
b1 *
#3761000000000
#3765000000000
1!
#3770000000000
0!
#3771000000000
#3775000000000
1!
#3780000000000
0!
0"
0%
#3781000000000
#3785000000000
1!
#3790000000000
0!
1"
1%
b11 )
b10 *
#3791000000000
#3795000000000
1!
#3800000000000
0!
#3801000000000
#3805000000000
1!
#3810000000000
0!
0"
0%
#3811000000000
#3815000000000
1!
#3820000000000
0!
1"
1%
b100 )
b11 *
#3821000000000
#3825000000000
1!
#3830000000000
0!
#3831000000000
#3835000000000
1!
#3840000000000
0!
0"
0%
#3841000000000
#3845000000000
1!
#3850000000000
0!
1"
0$
1%
0'
b101 )
b100 *
b0 +
#3851000000000
#3855000000000
1!
#3860000000000
0!
#3861000000000
#3865000000000
1!
#3870000000000
0!
0"
1#
0%
1&
#3871000000000
#3875000000000
1!
#3880000000000
0!
#3881000000000
#3885000000000
1!
#3890000000000
0!
1"
1%
b110 )
#3891000000000
#3895000000000
1!
#3900000000000
0!
#3901000000000
#3905000000000
1!
#3910000000000
0!
0"
0%
#3911000000000
#3915000000000
1!
#3920000000000
0!
1"
1%
b111 )
#3921000000000
#3925000000000
1!
#3930000000000
0!
#3931000000000
#3935000000000
1!
#3940000000000
0!
0"
0%
#3941000000000
#3945000000000
1!
#3950000000000
0!
1"
1%
b1000 )
#3951000000000
#3955000000000
1!
#3960000000000
0!
#3961000000000
#3965000000000
1!
#3970000000000
0!
0"
0%
#3971000000000
#3975000000000
1!
#3980000000000
0!
1"
1%
b0 (
b0 )
b0 *
b101 +
#3981000000000
#3985000000000
1!
#3990000000000
0!
#3991000000000
#3995000000000
1!
#4000000000000
0!
0"
0%
#4001000000000
#4005000000000
1!
#4010000000000
0!
1"
1$
1%
1'
b1 (
b1 )
#4011000000000
#4015000000000
1!
#4020000000000
0!
#4021000000000
#4025000000000
1!
#4030000000000
0!
0"
0%
#4031000000000
#4035000000000
1!
#4040000000000
0!
0#
0&
#4041000000000
#4045000000000
1!
#4050000000000
0!
1"
1%
b10 )
b1 *
#4051000000000
#4055000000000
1!
#4060000000000
0!
#4061000000000
#4065000000000
1!
#4070000000000
0!
0"
0%
#4071000000000
#4075000000000
1!
#4080000000000
0!
1"
1%
b11 )
b10 *
#4081000000000
#4085000000000
1!
#4090000000000
0!
#4091000000000
#4095000000000
1!
#4100000000000
0!
0"
0%
#4101000000000
#4105000000000
1!
#4110000000000
0!
1"
1%
b100 )
b11 *
#4111000000000
#4115000000000
1!
#4120000000000
0!
#4121000000000
#4125000000000
1!
#4130000000000
0!
0"
0%
#4131000000000
#4135000000000
1!
#4140000000000
0!
1"
1%
b101 )
b100 *
#4141000000000
#4145000000000
1!
#4150000000000
0!
#4151000000000
#4155000000000
1!
#4160000000000
0!
0"
0%
#4161000000000
#4165000000000
1!
#4170000000000
0!
1"
0$
1%
0'
b110 )
b101 *
b0 +
#4171000000000
#4175000000000
1!
#4180000000000
0!
#4181000000000
#4185000000000
1!
#4190000000000
0!
0"
0%
#4191000000000
#4195000000000
1!
#4200000000000
0!
1#
1&
#4201000000000
#4205000000000
1!
#4210000000000
0!
#4211000000000
#4215000000000
1!
#4220000000000
0!
1"
1%
b111 )
#4221000000000
#4225000000000
1!
#4230000000000
0!
#4231000000000
#4235000000000
1!
#4240000000000
0!
0"
0%
#4241000000000
#4245000000000
1!
#4250000000000
0!
1"
1%
b1000 )
#4251000000000
#4255000000000
1!
#4260000000000
0!
#4261000000000
#4265000000000
1!
#4270000000000
0!
0"
0%
#4271000000000
#4275000000000
1!
#4280000000000
0!
1"
1%
b0 (
b0 )
b0 *
b110 +
#4281000000000
#4285000000000
1!
#4290000000000
0!
#4291000000000
#4295000000000
1!
